<svg width="290" height="108" viewBox="0 0 290 108" fill="none" xmlns="http://www.w3.org/2000/svg">
<path d="M29.44 0.698847C26.2933 2.36528 23.8932 4.83805 22.3998 7.90214C21.3331 10.0792 20.9865 12.2295 21.1465 15.3204C21.3065 18.1964 21.9732 20.4004 23.2799 22.6044C24.2932 24.2977 24.5332 24.3246 26.6399 22.9269C29.84 20.8304 32.1334 17.3632 32.9334 13.5734C33.4401 11.1275 33.4401 7.04204 32.9067 4.83805C32.4801 3.01035 31.2534 2.09808e-05 30.9334 2.09808e-05C30.8267 2.09808e-05 30.16 0.322556 29.44 0.698847Z" fill="#6366F1"/>
<path d="M6.18775 16.7181C3.81437 21.6367 3.68103 26.1791 5.78774 30.6408C7.01444 33.248 10.2412 36.554 12.7746 37.8441C13.7079 38.3279 14.6413 38.7042 14.8279 38.7042C15.2813 38.7042 16.3213 36.6615 16.908 34.6994C17.388 33.033 17.468 29.0282 17.0413 27.1467C16.5346 24.889 14.4813 21.0992 12.6412 19.1102C10.9879 17.3094 8.02779 15.0516 7.33444 15.0516C7.14777 15.0516 6.6411 15.8042 6.18775 16.7181Z" fill="#6366F1"/>
<path d="M35.8384 22.4164C29.3849 25.6417 25.5981 31.2323 25.5981 37.5218C25.5981 39.0807 26.1848 42.3329 26.5048 42.6823C26.5582 42.7092 27.4115 42.5748 28.3982 42.3329C32.5583 41.3653 36.9851 38.0593 38.8518 34.5383C39.7585 32.7912 40.5318 29.5659 40.5318 27.4694C40.5318 26.1255 40.2118 24.1365 39.7318 22.2551C39.3585 20.9112 38.8518 20.9112 35.8384 22.4164Z" fill="#6366F1"/>
<path d="M21.359 27.3349C21.2257 27.6037 20.799 28.8401 20.4257 30.1034C18.1323 37.3873 17.8123 47.7622 19.599 56.5513C20.799 62.5988 22.5057 67.4368 25.5991 73.78C29.4926 81.709 33.6793 87.7835 40.6928 95.6856C44.8796 100.416 53.0397 108.211 53.5464 107.996C53.8931 107.888 55.9998 105.389 55.9998 105.12C55.9998 104.985 54.8798 103.883 53.5464 102.647C41.0395 91.2776 32.5326 80.1232 27.4658 68.4313C24.5591 61.7387 22.9857 55.6643 22.3724 48.6223C21.8657 42.736 22.7724 35.2639 24.5325 30.6678C24.9591 29.5658 25.2791 28.6251 25.2525 28.5982C25.0925 28.4638 21.8657 26.878 21.7591 26.878C21.6791 26.878 21.519 27.0931 21.359 27.3349Z" fill="#6366F1"/>
<path d="M0.29334 36.2855C0.133336 37.0381 0 38.7851 0 40.129C0 44.6714 1.20003 47.7086 4.13343 50.6652C6.21347 52.7348 8.85353 54.2668 11.6003 54.9657C13.2803 55.3957 15.2003 55.5032 15.2003 55.1538C15.2003 55.0463 15.3337 54.1862 15.4937 53.2186C15.8937 50.6652 15.4137 47.7355 14.107 44.9133C12.0003 40.3441 6.66681 36.2049 1.41336 35.076C0.58668 34.9147 0.58668 34.9147 0.29334 36.2855Z" fill="#6366F1"/>
<path d="M35.3884 42.5478C33.015 43.8917 31.0416 45.5851 29.5749 47.5203C26.8282 51.1757 25.6549 54.8042 25.9482 58.8359C26.0815 60.798 26.9082 63.7814 27.4682 64.3459C28.2149 65.0984 33.5217 62.2225 35.5484 59.9648C37.0418 58.2714 38.2951 56.2018 38.9618 54.2666C40.0018 51.1757 39.6552 46.4452 38.1351 42.8704C37.8418 42.1984 37.4684 41.6609 37.2818 41.6609C37.0951 41.6609 36.2418 42.064 35.3884 42.5478Z" fill="#6366F1"/>
<path d="M1.94565 58.0297C2.47899 66.4963 7.99912 72.1675 16.2926 72.7588C17.546 72.8394 19.0127 72.8394 19.5727 72.7319C20.5061 72.5438 20.5327 72.5169 20.5327 71.4149C20.5061 68.0014 19.0394 64.4267 16.506 61.712C13.1459 58.0835 9.33248 56.3095 3.75902 55.772L1.78564 55.5838L1.94565 58.0297Z" fill="#6366F1"/>
<path d="M42.7202 57.8142C41.9468 58.2443 40.5601 59.3731 39.6268 60.287C34.2133 65.6357 32.5333 72.9734 35.3333 78.9403C35.84 80.0154 36.3733 80.9024 36.56 80.9024C36.72 80.9024 37.7067 80.4454 38.7734 79.9079C42.4535 77.9458 45.7869 73.7528 46.6669 69.9362C47.4669 66.5227 46.8536 62.1147 45.1735 58.8625C44.1602 56.8735 44.2669 56.9272 42.7202 57.8142Z" fill="#6366F1"/>
<path d="M48.3986 73.8336C43.9452 79.5586 42.8252 86.9231 45.4919 92.6213C46.3719 94.4758 48.6653 97.298 49.3053 97.298C49.9187 97.298 52.7454 94.3146 53.7321 92.6213C56.5588 87.7563 56.6922 82.1926 54.1321 77.5158C53.1454 75.715 50.3454 72.3015 49.8387 72.3015C49.7053 72.3015 49.0653 73.0003 48.3986 73.8336Z" fill="#6366F1"/>
<path d="M8.66504 75.5271C8.07836 75.6614 7.25167 75.8765 6.825 76.0377C6.15832 76.3065 6.07831 76.4409 6.23832 77.2204C6.31832 77.6773 6.905 79.1018 7.51835 80.3382C8.77171 82.8379 11.0651 85.445 13.1451 86.6545C17.0652 88.966 23.012 89.2617 27.4121 87.3534L28.7455 86.762L28.4788 85.7944C27.9455 83.8323 26.5321 81.5746 24.7721 79.8275C21.652 76.7366 17.6519 75.2314 12.5585 75.2852C11.0118 75.312 9.25172 75.4195 8.66504 75.5271Z" fill="#6366F1"/>
<path d="M23.4919 92.0569C20.9318 92.5407 18.3984 93.5083 18.3984 93.9921C18.3984 94.7179 19.9985 97.54 21.3318 99.1527C22.8785 101.034 25.0653 102.593 27.332 103.48C29.5454 104.34 34.0788 104.528 36.5322 103.883C38.7189 103.319 41.5723 101.948 41.7856 101.41C42.079 100.685 40.4789 98.0507 38.6656 96.223C36.7722 94.3147 34.4788 92.9977 31.8921 92.3257C29.5454 91.7344 25.8119 91.6 23.4919 92.0569Z" fill="#6366F1"/>
<path d="M81.375 62.5V44.2812H81.2812L75.5312 48.1875V44L81.3594 39.9531H86.0469V62.5H81.375ZM93 62.7656C92.2917 62.7656 91.6927 62.5208 91.2031 62.0312C90.7135 61.5417 90.4688 60.9427 90.4688 60.2344C90.4688 59.526 90.7135 58.9271 91.2031 58.4375C91.6927 57.9479 92.2917 57.7031 93 57.7031C93.7083 57.7031 94.3073 57.9479 94.7969 58.4375C95.2865 58.9271 95.5312 59.526 95.5312 60.2344C95.5312 60.9427 95.2865 61.5417 94.7969 62.0312C94.3073 62.5208 93.7083 62.7656 93 62.7656ZM98.4531 62.5V59.2656L106.422 51.8125C107.401 50.9062 108.141 50.151 108.641 49.5469C109.141 48.9427 109.479 48.401 109.656 47.9219C109.844 47.4427 109.938 46.9427 109.938 46.4219V46.3906C109.938 45.776 109.792 45.2344 109.5 44.7656C109.208 44.2865 108.802 43.9115 108.281 43.6406C107.771 43.3698 107.182 43.2344 106.516 43.2344C105.745 43.2344 105.068 43.3906 104.484 43.7031C103.901 44.0052 103.443 44.4271 103.109 44.9688C102.776 45.5 102.599 46.1042 102.578 46.7812L102.562 46.9219H98.1875V46.7969C98.1875 45.3802 98.5469 44.1302 99.2656 43.0469C99.9844 41.9531 100.969 41.099 102.219 40.4844C103.479 39.8698 104.901 39.5625 106.484 39.5625C108.078 39.5625 109.479 39.8438 110.688 40.4062C111.896 40.9583 112.839 41.7292 113.516 42.7188C114.193 43.7083 114.531 44.8438 114.531 46.125V46.1562C114.531 47.0625 114.365 47.9062 114.031 48.6875C113.708 49.4583 113.172 50.2812 112.422 51.1562C111.672 52.0208 110.646 53.0521 109.344 54.25L102.812 60.2031L104.625 57.0312V60.2031L102.828 58.75H114.844V62.5H98.4531ZM117.656 62.5V45.75H122.219V48.5625H122.312C122.656 47.6042 123.24 46.8385 124.062 46.2656C124.896 45.6927 125.875 45.4062 127 45.4062C127.781 45.4062 128.484 45.5417 129.109 45.8125C129.734 46.0833 130.26 46.474 130.688 46.9844C131.125 47.4948 131.432 48.1198 131.609 48.8594H131.703C131.953 48.151 132.328 47.5417 132.828 47.0312C133.339 46.5104 133.938 46.1094 134.625 45.8281C135.323 45.5469 136.083 45.4062 136.906 45.4062C138 45.4062 138.958 45.6406 139.781 46.1094C140.604 46.5781 141.245 47.2344 141.703 48.0781C142.161 48.9219 142.391 49.9115 142.391 51.0469V62.5H137.828V52.1875C137.828 51.5417 137.719 50.9948 137.5 50.5469C137.292 50.099 136.984 49.7604 136.578 49.5312C136.182 49.3021 135.688 49.1875 135.094 49.1875C134.521 49.1875 134.016 49.3177 133.578 49.5781C133.151 49.8385 132.818 50.2031 132.578 50.6719C132.339 51.1406 132.219 51.6875 132.219 52.3125V62.5H127.828V52.0469C127.828 51.4427 127.719 50.9271 127.5 50.5C127.281 50.0729 126.969 49.75 126.562 49.5312C126.167 49.3021 125.688 49.1875 125.125 49.1875C124.552 49.1875 124.047 49.3229 123.609 49.5938C123.172 49.8646 122.828 50.2396 122.578 50.7188C122.339 51.1979 122.219 51.7552 122.219 52.3906V62.5H117.656ZM145.672 55.3281V51.3438H162.641V55.3281H145.672ZM152.156 61.3281V45.3281H156.141V61.3281H152.156ZM173.562 62.5V49.1875H171.281V45.75H173.562V44.4062C173.562 43.3125 173.745 42.4115 174.109 41.7031C174.484 40.9948 175.073 40.4688 175.875 40.125C176.688 39.7812 177.755 39.6094 179.078 39.6094C179.495 39.6094 179.917 39.6302 180.344 39.6719C180.771 39.7031 181.115 39.7448 181.375 39.7969V42.8125C181.219 42.7812 181.036 42.7604 180.828 42.75C180.62 42.7396 180.411 42.7344 180.203 42.7344C179.453 42.7344 178.901 42.8906 178.547 43.2031C178.193 43.5156 178.016 43.974 178.016 44.5781V45.75H181.344V49.1875H178.125V62.5H173.562ZM187.891 62.7656C186.776 62.7656 185.797 62.5521 184.953 62.125C184.109 61.6875 183.448 61.0885 182.969 60.3281C182.5 59.5573 182.266 58.6823 182.266 57.7031V57.6719C182.266 56.651 182.521 55.7812 183.031 55.0625C183.542 54.3333 184.281 53.7604 185.25 53.3438C186.219 52.9271 187.396 52.6719 188.781 52.5781L195.312 52.1719V55.0156L189.469 55.3906C188.594 55.4427 187.927 55.651 187.469 56.0156C187.01 56.3698 186.781 56.8438 186.781 57.4375V57.4688C186.781 58.0833 187.016 58.5677 187.484 58.9219C187.953 59.2656 188.583 59.4375 189.375 59.4375C190.052 59.4375 190.656 59.3073 191.188 59.0469C191.729 58.776 192.151 58.4115 192.453 57.9531C192.766 57.4844 192.922 56.9583 192.922 56.375V51.2969C192.922 50.5573 192.688 49.974 192.219 49.5469C191.75 49.1094 191.068 48.8906 190.172 48.8906C189.318 48.8906 188.641 49.0677 188.141 49.4219C187.641 49.776 187.333 50.224 187.219 50.7656L187.188 50.9062H183.016L183.031 50.7188C183.115 49.6875 183.453 48.7708 184.047 47.9688C184.651 47.1667 185.484 46.5417 186.547 46.0938C187.62 45.6354 188.891 45.4062 190.359 45.4062C191.807 45.4062 193.062 45.6406 194.125 46.1094C195.188 46.5677 196.01 47.2188 196.594 48.0625C197.188 48.9062 197.484 49.8906 197.484 51.0156V62.5H192.922V60H192.828C192.516 60.5729 192.109 61.0677 191.609 61.4844C191.12 61.8906 190.562 62.2083 189.938 62.4375C189.312 62.6562 188.63 62.7656 187.891 62.7656ZM199.297 62.5L204.547 54.1562L199.328 45.75H204.469L207.484 51.4062H207.578L210.547 45.75H215.516L210.281 54.0312L215.469 62.5H210.516L207.328 56.6875H207.234L204.094 62.5H199.297Z" fill="#010101"/>
<path d="M103.398 27.832C102.35 27.832 101.409 27.6628 100.576 27.3242C99.7423 26.9857 99.0326 26.4974 98.4467 25.8594C97.8607 25.2148 97.4115 24.4368 97.099 23.5254C96.7865 22.6139 96.6303 21.5853 96.6303 20.4395V20.4297C96.6303 18.9193 96.9037 17.6139 97.4506 16.5137C97.9975 15.4134 98.7722 14.5671 99.7748 13.9746C100.777 13.3757 101.962 13.0762 103.329 13.0762C104.443 13.0762 105.436 13.278 106.308 13.6816C107.187 14.0788 107.903 14.6289 108.456 15.332C109.016 16.0352 109.368 16.849 109.511 17.7734L109.521 17.8809H106.591L106.562 17.793C106.36 17.0898 105.976 16.5462 105.41 16.1621C104.843 15.7715 104.15 15.5762 103.329 15.5762C102.568 15.5762 101.91 15.7715 101.357 16.1621C100.81 16.5462 100.387 17.0996 100.087 17.8223C99.7878 18.5384 99.6381 19.3978 99.6381 20.4004V20.4199C99.6381 21.1816 99.726 21.8652 99.9018 22.4707C100.078 23.0762 100.331 23.5938 100.663 24.0234C101.002 24.4466 101.402 24.7721 101.865 25C102.333 25.2214 102.861 25.332 103.447 25.332C104.091 25.332 104.658 25.2116 105.146 24.9707C105.641 24.7233 106.028 24.3815 106.308 23.9453C106.594 23.5026 106.747 22.985 106.767 22.3926L106.777 22.1484H103.691V19.9805H109.648V21.7285C109.648 22.6725 109.505 23.5221 109.218 24.2773C108.932 25.026 108.515 25.6673 107.968 26.2012C107.428 26.7285 106.77 27.1322 105.996 27.4121C105.227 27.6921 104.361 27.832 103.398 27.832ZM117.138 27.7246C116.05 27.7246 115.116 27.5 114.335 27.0508C113.554 26.6016 112.951 25.9635 112.528 25.1367C112.112 24.3034 111.903 23.3171 111.903 22.1777V22.168C111.903 21.0352 112.112 20.0521 112.528 19.2188C112.951 18.3789 113.544 17.7311 114.306 17.2754C115.074 16.8197 115.979 16.5918 117.021 16.5918C118.062 16.5918 118.961 16.8132 119.716 17.2559C120.471 17.6986 121.054 18.3236 121.464 19.1309C121.874 19.9316 122.079 20.8724 122.079 21.9531V22.832H113.319V21.0449H120.722L119.374 22.7344V21.6016C119.374 20.9701 119.276 20.4395 119.081 20.0098C118.886 19.5801 118.616 19.2578 118.271 19.043C117.925 18.8281 117.525 18.7207 117.069 18.7207C116.614 18.7207 116.21 18.8314 115.858 19.0527C115.507 19.2741 115.23 19.5996 115.028 20.0293C114.826 20.459 114.726 20.9831 114.726 21.6016V22.7441C114.726 23.3431 114.823 23.8542 115.019 24.2773C115.22 24.7005 115.507 25.026 115.878 25.2539C116.249 25.4818 116.688 25.5957 117.196 25.5957C117.606 25.5957 117.955 25.5339 118.241 25.4102C118.534 25.2865 118.772 25.14 118.954 24.9707C119.136 24.7949 119.26 24.6322 119.325 24.4824L119.345 24.4238H121.991L121.972 24.5312C121.887 24.8763 121.734 25.2376 121.513 25.6152C121.291 25.9863 120.985 26.3314 120.595 26.6504C120.211 26.9694 119.732 27.2298 119.159 27.4316C118.586 27.627 117.912 27.7246 117.138 27.7246ZM128.876 27.7246C127.906 27.7246 127.079 27.5911 126.395 27.3242C125.712 27.0508 125.174 26.6732 124.784 26.1914C124.4 25.7096 124.172 25.1562 124.1 24.5312V24.4824H126.893L126.913 24.5312C127.023 24.8828 127.241 25.1693 127.567 25.3906C127.893 25.6055 128.338 25.7129 128.905 25.7129C129.269 25.7129 129.585 25.6641 129.852 25.5664C130.126 25.4688 130.337 25.3353 130.487 25.166C130.637 24.9902 130.712 24.7852 130.712 24.5508V24.5312C130.712 24.2448 130.598 24.0104 130.37 23.8281C130.142 23.6458 129.761 23.4928 129.227 23.3691L127.43 22.9883C126.753 22.8451 126.187 22.6367 125.731 22.3633C125.275 22.0898 124.934 21.7513 124.706 21.3477C124.478 20.944 124.364 20.4753 124.364 19.9414V19.9316C124.364 19.2611 124.549 18.6751 124.921 18.1738C125.292 17.6725 125.812 17.2852 126.483 17.0117C127.154 16.7318 127.935 16.5918 128.827 16.5918C129.764 16.5918 130.559 16.735 131.21 17.0215C131.867 17.3014 132.372 17.6823 132.723 18.1641C133.075 18.6458 133.27 19.1797 133.309 19.7656V19.8145H130.663L130.653 19.7656C130.588 19.4531 130.399 19.1829 130.087 18.9551C129.774 18.7207 129.351 18.6035 128.817 18.6035C128.491 18.6035 128.202 18.6523 127.948 18.75C127.7 18.8411 127.505 18.9746 127.362 19.1504C127.219 19.3197 127.147 19.5247 127.147 19.7656V19.7754C127.147 19.9642 127.196 20.1302 127.294 20.2734C127.391 20.4102 127.547 20.5306 127.762 20.6348C127.984 20.7389 128.277 20.8333 128.641 20.918L130.428 21.2988C131.509 21.5332 132.3 21.8848 132.801 22.3535C133.309 22.8158 133.563 23.4408 133.563 24.2285V24.2383C133.563 24.9414 133.361 25.5566 132.958 26.084C132.56 26.6048 132.01 27.0085 131.307 27.2949C130.604 27.5814 129.794 27.7246 128.876 27.7246ZM140.828 27.7246C139.741 27.7246 138.807 27.5 138.026 27.0508C137.244 26.6016 136.642 25.9635 136.219 25.1367C135.802 24.3034 135.594 23.3171 135.594 22.1777V22.168C135.594 21.0352 135.802 20.0521 136.219 19.2188C136.642 18.3789 137.235 17.7311 137.996 17.2754C138.765 16.8197 139.669 16.5918 140.711 16.5918C141.753 16.5918 142.651 16.8132 143.406 17.2559C144.162 17.6986 144.744 18.3236 145.154 19.1309C145.565 19.9316 145.77 20.8724 145.77 21.9531V22.832H137.01V21.0449H144.412L143.065 22.7344V21.6016C143.065 20.9701 142.967 20.4395 142.772 20.0098C142.576 19.5801 142.306 19.2578 141.961 19.043C141.616 18.8281 141.216 18.7207 140.76 18.7207C140.304 18.7207 139.901 18.8314 139.549 19.0527C139.197 19.2741 138.921 19.5996 138.719 20.0293C138.517 20.459 138.416 20.9831 138.416 21.6016V22.7441C138.416 23.3431 138.514 23.8542 138.709 24.2773C138.911 24.7005 139.197 25.026 139.569 25.2539C139.94 25.4818 140.379 25.5957 140.887 25.5957C141.297 25.5957 141.645 25.5339 141.932 25.4102C142.225 25.2865 142.462 25.14 142.645 24.9707C142.827 24.7949 142.951 24.6322 143.016 24.4824L143.035 24.4238H145.682L145.662 24.5312C145.578 24.8763 145.425 25.2376 145.203 25.6152C144.982 25.9863 144.676 26.3314 144.285 26.6504C143.901 26.9694 143.423 27.2298 142.85 27.4316C142.277 27.627 141.603 27.7246 140.828 27.7246ZM148.289 27.5V16.8164H151.14V18.4863H151.287C151.541 17.9004 151.928 17.4382 152.449 17.0996C152.976 16.7611 153.627 16.5918 154.402 16.5918C155.587 16.5918 156.492 16.9401 157.117 17.6367C157.748 18.3333 158.064 19.3197 158.064 20.5957V27.5H155.213V21.2305C155.213 20.4883 155.05 19.9251 154.724 19.541C154.405 19.1504 153.914 18.9551 153.25 18.9551C152.814 18.9551 152.436 19.0527 152.117 19.248C151.804 19.4434 151.564 19.7201 151.394 20.0781C151.225 20.4297 151.14 20.8464 151.14 21.3281V27.5H148.289ZM164.841 27.6855C163.949 27.6855 163.178 27.4642 162.527 27.0215C161.876 26.5723 161.374 25.9375 161.023 25.1172C160.671 24.2904 160.496 23.3073 160.496 22.168V22.1484C160.496 21.0026 160.668 20.0195 161.013 19.1992C161.365 18.3724 161.863 17.7376 162.507 17.2949C163.158 16.8522 163.933 16.6309 164.831 16.6309C165.326 16.6309 165.782 16.709 166.199 16.8652C166.622 17.0215 166.99 17.2428 167.302 17.5293C167.621 17.8158 167.872 18.1576 168.054 18.5547H168.201V12.8223H171.052V27.5H168.201V25.8105H168.054C167.872 26.2012 167.624 26.5365 167.312 26.8164C166.999 27.0898 166.635 27.3047 166.218 27.4609C165.801 27.6107 165.343 27.6855 164.841 27.6855ZM165.808 25.3223C166.303 25.3223 166.729 25.1953 167.087 24.9414C167.452 24.6875 167.732 24.3262 167.927 23.8574C168.129 23.3822 168.23 22.819 168.23 22.168V22.1484C168.23 21.4974 168.129 20.9375 167.927 20.4688C167.725 19.9935 167.442 19.6289 167.078 19.375C166.719 19.1211 166.296 18.9941 165.808 18.9941C165.313 18.9941 164.884 19.1211 164.519 19.375C164.161 19.6289 163.884 19.9935 163.689 20.4688C163.494 20.9375 163.396 21.4974 163.396 22.1484V22.168C163.396 22.819 163.494 23.3822 163.689 23.8574C163.884 24.3262 164.161 24.6875 164.519 24.9414C164.884 25.1953 165.313 25.3223 165.808 25.3223ZM178.903 27.7246C177.816 27.7246 176.882 27.5 176.101 27.0508C175.319 26.6016 174.717 25.9635 174.294 25.1367C173.877 24.3034 173.669 23.3171 173.669 22.1777V22.168C173.669 21.0352 173.877 20.0521 174.294 19.2188C174.717 18.3789 175.31 17.7311 176.071 17.2754C176.84 16.8197 177.744 16.5918 178.786 16.5918C179.828 16.5918 180.726 16.8132 181.481 17.2559C182.237 17.6986 182.819 18.3236 183.229 19.1309C183.64 19.9316 183.845 20.8724 183.845 21.9531V22.832H175.085V21.0449H182.487L181.14 22.7344V21.6016C181.14 20.9701 181.042 20.4395 180.847 20.0098C180.651 19.5801 180.381 19.2578 180.036 19.043C179.691 18.8281 179.291 18.7207 178.835 18.7207C178.379 18.7207 177.976 18.8314 177.624 19.0527C177.272 19.2741 176.996 19.5996 176.794 20.0293C176.592 20.459 176.491 20.9831 176.491 21.6016V22.7441C176.491 23.3431 176.589 23.8542 176.784 24.2773C176.986 24.7005 177.272 25.026 177.644 25.2539C178.015 25.4818 178.454 25.5957 178.962 25.5957C179.372 25.5957 179.72 25.5339 180.007 25.4102C180.3 25.2865 180.537 25.14 180.72 24.9707C180.902 24.7949 181.026 24.6322 181.091 24.4824L181.11 24.4238H183.757L183.737 24.5312C183.653 24.8763 183.5 25.2376 183.278 25.6152C183.057 25.9863 182.751 26.3314 182.36 26.6504C181.976 26.9694 181.498 27.2298 180.925 27.4316C180.352 27.627 179.678 27.7246 178.903 27.7246ZM190.758 27.5781C189.482 27.5781 188.558 27.347 187.985 26.8848C187.419 26.4225 187.135 25.6608 187.135 24.5996V18.9648H185.534V16.8164H187.135V14.248H190.016V16.8164H192.165V18.9648H190.016V24.0234C190.016 24.5052 190.127 24.8535 190.348 25.0684C190.57 25.2832 190.915 25.3906 191.383 25.3906C191.553 25.3906 191.693 25.3874 191.803 25.3809C191.921 25.3743 192.041 25.3646 192.165 25.3516V27.4609C191.995 27.4935 191.787 27.5195 191.54 27.5391C191.299 27.5651 191.038 27.5781 190.758 27.5781Z" fill="#6366F1"/>
<path d="M91 78.5L93.3574 85.7553H100.986L94.8143 90.2394L97.1717 97.4947L91 93.0106L84.8283 97.4947L87.1857 90.2394L81.0139 85.7553H88.6426L91 78.5Z" fill="#6366F1"/>
<path d="M118 78.5L120.357 85.7553H127.986L121.814 90.2394L124.172 97.4947L118 93.0106L111.828 97.4947L114.186 90.2394L108.014 85.7553H115.643L118 78.5Z" fill="#6366F1"/>
<path d="M145 78.5L147.357 85.7553H154.986L148.814 90.2394L151.172 97.4947L145 93.0106L138.828 97.4947L141.186 90.2394L135.014 85.7553H142.643L145 78.5Z" fill="#6366F1"/>
<path d="M172 78.5L174.357 85.7553H181.986L175.814 90.2394L178.172 97.4947L172 93.0106L165.828 97.4947L168.186 90.2394L162.014 85.7553H169.643L172 78.5Z" fill="#6366F1"/>
<path d="M199 78.5L201.357 85.7553H208.986L202.814 90.2394L205.172 97.4947L199 93.0106L192.828 97.4947L195.186 90.2394L189.014 85.7553H196.643L199 78.5Z" fill="#6366F1"/>
<path d="M260.56 0.698847C263.707 2.36528 266.107 4.83805 267.6 7.90214C268.667 10.0792 269.014 12.2295 268.854 15.3204C268.694 18.1964 268.027 20.4004 266.72 22.6044C265.707 24.2977 265.467 24.3246 263.36 22.9269C260.16 20.8304 257.867 17.3632 257.067 13.5734C256.56 11.1275 256.56 7.04204 257.093 4.83805C257.52 3.01035 258.747 2.09808e-05 259.067 2.09808e-05C259.173 2.09808e-05 259.84 0.322556 260.56 0.698847Z" fill="#6366F1"/>
<path d="M283.812 16.7181C286.186 21.6367 286.319 26.1791 284.212 30.6408C282.986 33.248 279.759 36.554 277.225 37.8441C276.292 38.3279 275.359 38.7042 275.172 38.7042C274.719 38.7042 273.679 36.6615 273.092 34.6994C272.612 33.033 272.532 29.0282 272.959 27.1467C273.465 24.889 275.519 21.0992 277.359 19.1102C279.012 17.3094 281.972 15.0516 282.666 15.0516C282.852 15.0516 283.359 15.8042 283.812 16.7181Z" fill="#6366F1"/>
<path d="M254.162 22.4164C260.615 25.6417 264.402 31.2323 264.402 37.5218C264.402 39.0807 263.815 42.3329 263.495 42.6823C263.442 42.7092 262.588 42.5748 261.602 42.3329C257.442 41.3653 253.015 38.0593 251.148 34.5383C250.242 32.7912 249.468 29.5659 249.468 27.4694C249.468 26.1255 249.788 24.1365 250.268 22.2551C250.642 20.9112 251.148 20.9112 254.162 22.4164Z" fill="#6366F1"/>
<path d="M268.641 27.3349C268.774 27.6037 269.201 28.8401 269.574 30.1034C271.868 37.3873 272.188 47.7622 270.401 56.5513C269.201 62.5988 267.494 67.4368 264.401 73.78C260.507 81.709 256.321 87.7835 249.307 95.6856C245.12 100.416 236.96 108.211 236.454 107.996C236.107 107.888 234 105.389 234 105.12C234 104.985 235.12 103.883 236.454 102.647C248.961 91.2776 257.467 80.1232 262.534 68.4313C265.441 61.7387 267.014 55.6643 267.628 48.6223C268.134 42.736 267.228 35.2639 265.468 30.6678C265.041 29.5658 264.721 28.6251 264.748 28.5982C264.908 28.4638 268.134 26.878 268.241 26.878C268.321 26.878 268.481 27.0931 268.641 27.3349Z" fill="#6366F1"/>
<path d="M289.707 36.2855C289.867 37.0381 290 38.7851 290 40.129C290 44.6714 288.8 47.7086 285.867 50.6652C283.787 52.7348 281.146 54.2668 278.4 54.9657C276.72 55.3957 274.8 55.5032 274.8 55.1538C274.8 55.0463 274.666 54.1862 274.506 53.2186C274.106 50.6652 274.586 47.7355 275.893 44.9133C278 40.3441 283.333 36.2049 288.587 35.076C289.413 34.9147 289.413 34.9147 289.707 36.2855Z" fill="#6366F1"/>
<path d="M254.612 42.5478C256.985 43.8917 258.958 45.5851 260.425 47.5203C263.172 51.1757 264.345 54.8042 264.052 58.8359C263.918 60.798 263.092 63.7814 262.532 64.3459C261.785 65.0984 256.478 62.2225 254.452 59.9648C252.958 58.2714 251.705 56.2018 251.038 54.2666C249.998 51.1757 250.345 46.4452 251.865 42.8704C252.158 42.1984 252.532 41.6609 252.718 41.6609C252.905 41.6609 253.758 42.064 254.612 42.5478Z" fill="#6366F1"/>
<path d="M288.054 58.0297C287.521 66.4963 282.001 72.1675 273.707 72.7588C272.454 72.8394 270.987 72.8394 270.427 72.7319C269.494 72.5438 269.467 72.5169 269.467 71.4149C269.494 68.0014 270.961 64.4267 273.494 61.712C276.854 58.0835 280.668 56.3095 286.241 55.772L288.214 55.5838L288.054 58.0297Z" fill="#6366F1"/>
<path d="M247.28 57.8142C248.053 58.2443 249.44 59.3731 250.373 60.287C255.787 65.6357 257.467 72.9734 254.667 78.9403C254.16 80.0154 253.627 80.9024 253.44 80.9024C253.28 80.9024 252.293 80.4454 251.227 79.9079C247.547 77.9458 244.213 73.7528 243.333 69.9362C242.533 66.5227 243.146 62.1147 244.826 58.8625C245.84 56.8735 245.733 56.9272 247.28 57.8142Z" fill="#6366F1"/>
<path d="M241.601 73.8336C246.055 79.5586 247.175 86.9231 244.508 92.6213C243.628 94.4758 241.335 97.298 240.695 97.298C240.081 97.298 237.255 94.3146 236.268 92.6213C233.441 87.7563 233.308 82.1926 235.868 77.5158C236.855 75.715 239.655 72.3015 240.161 72.3015C240.295 72.3015 240.935 73.0003 241.601 73.8336Z" fill="#6366F1"/>
<path d="M281.335 75.5271C281.922 75.6614 282.748 75.8765 283.175 76.0377C283.842 76.3065 283.922 76.4409 283.762 77.2204C283.682 77.6773 283.095 79.1018 282.482 80.3382C281.228 82.8379 278.935 85.445 276.855 86.6545C272.935 88.966 266.988 89.2617 262.588 87.3534L261.255 86.762L261.521 85.7944C262.055 83.8323 263.468 81.5746 265.228 79.8275C268.348 76.7366 272.348 75.2314 277.442 75.2852C278.988 75.312 280.748 75.4195 281.335 75.5271Z" fill="#6366F1"/>
<path d="M266.508 92.0569C269.068 92.5407 271.602 93.5083 271.602 93.9921C271.602 94.7179 270.002 97.54 268.668 99.1527C267.121 101.034 264.935 102.593 262.668 103.48C260.455 104.34 255.921 104.528 253.468 103.883C251.281 103.319 248.428 101.948 248.214 101.41C247.921 100.685 249.521 98.0507 251.334 96.223C253.228 94.3147 255.521 92.9977 258.108 92.3257C260.455 91.7344 264.188 91.6 266.508 92.0569Z" fill="#6366F1"/>
</svg>
