<svg width="25" height="19" viewBox="0 0 25 19" fill="none" xmlns="http://www.w3.org/2000/svg">
<path d="M5.53906 13.7656L5.8125 14.8672C5.97917 15.5286 6.25521 16.026 6.64062 16.3594C7.03125 16.6979 7.56771 16.8672 8.25 16.8672H16.7578C17.4453 16.8672 17.9818 16.7005 18.3672 16.3672C18.7578 16.0339 19.0365 15.5339 19.2031 14.8672L19.4766 13.7656H5.53906ZM5.21875 12.4219H19.8047L21.1875 6.76562L20.0547 6.17969L16.7188 8.57031C16.6146 8.64323 16.5234 8.67188 16.4453 8.65625C16.3672 8.63542 16.2969 8.58073 16.2344 8.49219L12.9219 3.64844L12.1016 3.63281L8.78125 8.48438C8.72396 8.5625 8.65885 8.61198 8.58594 8.63281C8.51823 8.64844 8.43229 8.61979 8.32812 8.54688L5.03906 6.19531L3.82812 6.78906L5.21875 12.4219ZM4.15625 8.20312C4.53646 8.20312 4.88021 8.11198 5.1875 7.92969C5.5 7.74219 5.7474 7.49479 5.92969 7.1875C6.11198 6.875 6.20312 6.52865 6.20312 6.14844C6.20312 5.77865 6.11198 5.4401 5.92969 5.13281C5.7474 4.82031 5.5 4.57292 5.1875 4.39062C4.88021 4.20312 4.53646 4.10938 4.15625 4.10938C3.78125 4.10938 3.4375 4.20312 3.125 4.39062C2.81771 4.57292 2.57031 4.82031 2.38281 5.13281C2.20052 5.4401 2.10938 5.77865 2.10938 6.14844C2.10938 6.52865 2.20052 6.875 2.38281 7.1875C2.57031 7.49479 2.82031 7.74219 3.13281 7.92969C3.44531 8.11198 3.78646 8.20312 4.15625 8.20312ZM12.5078 4.82812C12.8828 4.82812 13.224 4.73698 13.5312 4.55469C13.8438 4.3724 14.0911 4.125 14.2734 3.8125C14.4609 3.5 14.5547 3.15625 14.5547 2.78125C14.5547 2.40625 14.4609 2.0651 14.2734 1.75781C14.0911 1.45052 13.8438 1.20573 13.5312 1.02344C13.224 0.835938 12.8828 0.742188 12.5078 0.742188C12.1328 0.742188 11.7891 0.833333 11.4766 1.01562C11.1641 1.19792 10.9167 1.44531 10.7344 1.75781C10.5521 2.0651 10.4609 2.40625 10.4609 2.78125C10.4609 3.15625 10.5521 3.5 10.7344 3.8125C10.9167 4.125 11.1641 4.3724 11.4766 4.55469C11.7891 4.73698 12.1328 4.82812 12.5078 4.82812ZM20.8359 8.20312C21.2109 8.20312 21.5521 8.11198 21.8594 7.92969C22.1719 7.74219 22.4193 7.49479 22.6016 7.1875C22.7891 6.875 22.8828 6.52865 22.8828 6.14844C22.8828 5.77865 22.7917 5.4401 22.6094 5.13281C22.4271 4.82031 22.1797 4.57292 21.8672 4.39062C21.5547 4.20312 21.2109 4.10938 20.8359 4.10938C20.4609 4.10938 20.1172 4.20312 19.8047 4.39062C19.4974 4.57292 19.25 4.82031 19.0625 5.13281C18.8802 5.4401 18.7891 5.77865 18.7891 6.14844C18.7891 6.52865 18.8802 6.875 19.0625 7.1875C19.25 7.49479 19.4974 7.74219 19.8047 7.92969C20.1172 8.11198 20.4609 8.20312 20.8359 8.20312Z" fill="white"/>
</svg>
