{
  "images" : [
    {
      "filename" : "phone5 2.pdf",
      "idiom" : "universal"
    },
    {
      "filename" : "phone5 1.pdf",
      "idiom" : "universal",
      "locale" : "de"
    },
    {
      "filename" : "phone5.pdf",
      "idiom" : "universal",
      "locale" : "ja"
    }
  ],
  "info" : {
    "author" : "xcode",
    "version" : 1
  },
  "properties" : {
    "localizable" : true
  }
}
