<svg width="25" height="26" viewBox="0 0 25 26" fill="none" xmlns="http://www.w3.org/2000/svg">
<path d="M12.4888 23.8413C12.6759 23.8413 12.8556 23.8338 13.0278 23.8188C13.2075 23.8114 13.3872 23.7964 13.5669 23.7739L14.1284 24.8521C14.1808 24.9569 14.2482 25.028 14.3306 25.0654C14.4129 25.1104 14.5252 25.1253 14.6675 25.1104C14.7948 25.0954 14.8883 25.0542 14.9482 24.9868C15.0081 24.9269 15.0418 24.8258 15.0493 24.6836L15.2402 23.4819C15.5771 23.3996 15.9141 23.2948 16.251 23.1675C16.5879 23.0477 16.9173 22.9092 17.2393 22.752L18.1265 23.5493C18.2088 23.6392 18.2949 23.6878 18.3848 23.6953C18.4746 23.7103 18.5869 23.6878 18.7217 23.6279C18.9089 23.5306 18.98 23.3509 18.9351 23.0889L18.6992 21.9209C18.9912 21.7188 19.272 21.5054 19.5415 21.2808C19.8185 21.0562 20.0806 20.8091 20.3276 20.5396L21.4282 21C21.6304 21.1123 21.825 21.0599 22.0122 20.8428C22.1095 20.7529 22.1582 20.6631 22.1582 20.5732C22.1657 20.4834 22.1283 20.3823 22.0459 20.27L21.4058 19.248C21.6154 18.9561 21.8101 18.6566 21.9897 18.3496C22.1694 18.0352 22.3304 17.7207 22.4727 17.4062L23.6855 17.4624C23.8203 17.4699 23.9214 17.4512 23.9888 17.4062C24.0636 17.3538 24.1198 17.264 24.1572 17.1367C24.2021 17.0169 24.2096 16.9159 24.1797 16.8335C24.1572 16.7437 24.0936 16.6613 23.9888 16.5864L23.0566 15.8228C23.1465 15.4933 23.2214 15.1527 23.2812 14.8008C23.3411 14.4414 23.3823 14.0783 23.4048 13.7114L24.5503 13.3633C24.7824 13.2734 24.8984 13.1125 24.8984 12.8804C24.8984 12.6483 24.7824 12.491 24.5503 12.4087L23.4048 12.0381C23.3823 11.6787 23.3374 11.3231 23.27 10.9712C23.2101 10.6193 23.139 10.2749 23.0566 9.93799L23.9888 9.17432C24.0861 9.10693 24.146 9.03206 24.1685 8.94971C24.1984 8.86735 24.1947 8.76253 24.1572 8.63525C24.1198 8.50798 24.0636 8.41813 23.9888 8.36572C23.9214 8.31331 23.8203 8.29085 23.6855 8.29834L22.4727 8.35449C22.3229 8.02507 22.1582 7.70687 21.9785 7.3999C21.8063 7.09294 21.6154 6.7972 21.4058 6.5127L22.0459 5.49072C22.1283 5.3859 22.1657 5.29232 22.1582 5.20996C22.1582 5.12012 22.1095 5.02653 22.0122 4.9292C21.825 4.70459 21.6304 4.65218 21.4282 4.77197L20.3276 5.22119C20.0806 4.96663 19.8185 4.72331 19.5415 4.49121C19.272 4.25911 18.9912 4.04574 18.6992 3.85107L18.9351 2.69434C18.9575 2.5446 18.9538 2.42855 18.9238 2.34619C18.8939 2.26383 18.8265 2.19645 18.7217 2.14404C18.5869 2.07666 18.4746 2.05046 18.3848 2.06543C18.3024 2.07292 18.2163 2.12158 18.1265 2.21143L17.2393 2.99756C16.9173 2.84782 16.5879 2.71305 16.251 2.59326C15.9141 2.47347 15.5771 2.3724 15.2402 2.29004L15.0493 1.08838C15.0418 0.946126 15.0081 0.845052 14.9482 0.785156C14.8883 0.72526 14.7873 0.684082 14.645 0.661621C14.5177 0.646647 14.4129 0.657878 14.3306 0.695312C14.2482 0.732747 14.1808 0.80013 14.1284 0.897461L13.5669 1.99805C13.3872 1.97559 13.2075 1.96061 13.0278 1.95312C12.8556 1.93815 12.6759 1.93066 12.4888 1.93066C12.3166 1.93066 12.1444 1.93815 11.9722 1.95312C11.8 1.96061 11.6203 1.97559 11.4331 1.99805L10.8716 0.897461C10.8192 0.80013 10.7518 0.732747 10.6694 0.695312C10.5871 0.657878 10.4748 0.646647 10.3325 0.661621C10.1978 0.684082 10.1004 0.72526 10.0405 0.785156C9.98812 0.845052 9.95443 0.946126 9.93945 1.08838L9.771 2.26758C9.4266 2.36491 9.08594 2.47347 8.74902 2.59326C8.41211 2.70557 8.08643 2.84033 7.77197 2.99756L6.87354 2.22266C6.7762 2.13281 6.68262 2.08415 6.59277 2.07666C6.51042 2.06169 6.40934 2.08415 6.28955 2.14404C6.17725 2.19645 6.10612 2.26383 6.07617 2.34619C6.04622 2.42855 6.04248 2.5446 6.06494 2.69434L6.30078 3.85107C6.00879 4.04574 5.72428 4.25911 5.44727 4.49121C5.17773 4.72331 4.91943 4.96663 4.67236 5.22119L3.57178 4.77197C3.36963 4.65218 3.17497 4.70459 2.98779 4.9292C2.89795 5.02653 2.84928 5.11637 2.8418 5.19873C2.83431 5.28109 2.868 5.37093 2.94287 5.46826L3.59424 6.5127C3.3846 6.7972 3.18994 7.09294 3.01025 7.3999C2.83057 7.70687 2.6696 8.02507 2.52734 8.35449L1.31445 8.29834C1.17969 8.29085 1.07487 8.31331 1 8.36572C0.932617 8.41813 0.876465 8.50798 0.831543 8.63525C0.779134 8.76253 0.767904 8.86735 0.797852 8.94971C0.827799 9.03206 0.898926 9.10693 1.01123 9.17432L1.95459 9.93799C1.85726 10.2749 1.77865 10.6193 1.71875 10.9712C1.65885 11.3156 1.61768 11.6675 1.59521 12.0269L0.438477 12.4087C0.20638 12.4836 0.090332 12.6408 0.090332 12.8804C0.090332 13.1125 0.20638 13.2734 0.438477 13.3633L1.59521 13.7227C1.61768 14.082 1.65885 14.4414 1.71875 14.8008C1.77865 15.1527 1.85726 15.4933 1.95459 15.8228L1.01123 16.5864C0.906413 16.6538 0.83903 16.7287 0.809082 16.811C0.786621 16.8934 0.794108 17.002 0.831543 17.1367C0.876465 17.264 0.932617 17.3538 1 17.4062C1.07487 17.4512 1.17969 17.4699 1.31445 17.4624L2.52734 17.4062C2.66211 17.7207 2.81934 18.0352 2.99902 18.3496C3.1862 18.6566 3.38086 18.9561 3.58301 19.248L2.9541 20.27C2.86426 20.3823 2.82308 20.4834 2.83057 20.5732C2.83805 20.6631 2.89046 20.7529 2.98779 20.8428C3.17497 21.0599 3.36963 21.1123 3.57178 21L4.67236 20.5396C4.91943 20.8091 5.17773 21.0562 5.44727 21.2808C5.72428 21.5054 6.00879 21.7188 6.30078 21.9209L6.06494 23.0889C6.04248 23.2311 6.04622 23.3397 6.07617 23.4146C6.10612 23.4969 6.17725 23.568 6.28955 23.6279C6.41683 23.6878 6.52165 23.7103 6.604 23.6953C6.69385 23.6878 6.78369 23.6392 6.87354 23.5493L7.74951 22.752C8.07894 22.9092 8.41211 23.0477 8.74902 23.1675C9.08594 23.2948 9.4266 23.4033 9.771 23.4932L9.93945 24.6836C9.95443 24.8258 9.99186 24.9269 10.0518 24.9868C10.1117 25.0542 10.209 25.0954 10.3438 25.1104C10.486 25.1253 10.5946 25.1104 10.6694 25.0654C10.7518 25.028 10.8192 24.9569 10.8716 24.8521L11.4331 23.7739C11.5978 23.7964 11.77 23.8114 11.9497 23.8188C12.1369 23.8338 12.3166 23.8413 12.4888 23.8413ZM12.4888 23.0439C11.0887 23.0439 9.77848 22.7819 8.55811 22.2578C7.34521 21.7412 6.28206 21.0187 5.36865 20.0903C4.46273 19.1619 3.75146 18.0838 3.23486 16.856C2.72575 15.6206 2.47119 14.2954 2.47119 12.8804C2.47119 11.4578 2.72575 10.1326 3.23486 8.90479C3.75146 7.67692 4.46273 6.60254 5.36865 5.68164C6.28206 4.75326 7.34521 4.03076 8.55811 3.51416C9.77848 2.99007 11.0887 2.72803 12.4888 2.72803C13.8963 2.72803 15.2065 2.99007 16.4194 3.51416C17.6398 4.03076 18.703 4.75326 19.6089 5.68164C20.5223 6.60254 21.2336 7.67692 21.7427 8.90479C22.2593 10.1326 22.5176 11.4578 22.5176 12.8804C22.5176 14.2954 22.2593 15.6206 21.7427 16.856C21.2336 18.0838 20.5223 19.1619 19.6089 20.0903C18.703 21.0187 17.6398 21.7412 16.4194 22.2578C15.2065 22.7819 13.8963 23.0439 12.4888 23.0439ZM12.5112 15.4971C13.1476 15.4971 13.6979 15.2912 14.1621 14.8794C14.6263 14.4676 14.9146 13.9473 15.0269 13.3184H23.2026L23.1914 12.4873H15.0044C14.8846 11.8809 14.5926 11.383 14.1284 10.9937C13.6642 10.6043 13.1252 10.4097 12.5112 10.4097C12.3615 10.4097 12.2155 10.4246 12.0732 10.4546C11.931 10.4771 11.785 10.5145 11.6353 10.5669L7.51367 3.50293L6.75 3.896L10.894 10.9937C10.6021 11.2407 10.3737 11.5327 10.209 11.8696C10.0443 12.1991 9.96191 12.5584 9.96191 12.9478C9.96191 13.3521 10.0518 13.7264 10.2314 14.0708C10.4186 14.4152 10.6657 14.7109 10.9727 14.958L6.75 21.9434L7.49121 22.3926L11.7139 15.3735C11.8486 15.411 11.9797 15.4409 12.1069 15.4634C12.2417 15.4858 12.3765 15.4971 12.5112 15.4971ZM10.8042 12.9365C10.8042 12.4723 10.9727 12.0755 11.3096 11.7461C11.6465 11.4167 12.047 11.252 12.5112 11.252C12.9829 11.252 13.3835 11.4167 13.7129 11.7461C14.0498 12.0755 14.2183 12.4723 14.2183 12.9365C14.2183 13.4082 14.0498 13.8162 13.7129 14.1606C13.3835 14.4976 12.9829 14.666 12.5112 14.666C12.047 14.666 11.6465 14.4976 11.3096 14.1606C10.9727 13.8162 10.8042 13.4082 10.8042 12.9365Z" fill="#4C4C4C"/>
</svg>
