<svg width="13" height="16" viewBox="0 0 13 16" fill="none" xmlns="http://www.w3.org/2000/svg">
<path d="M9.01562 8.98047H3.82715C3.7041 8.98047 3.60156 9.02148 3.51953 9.10352C3.4375 9.18099 3.39648 9.27897 3.39648 9.39746C3.39648 9.51595 3.4375 9.61621 3.51953 9.69824C3.60156 9.78027 3.7041 9.82129 3.82715 9.82129H9.01562C9.13411 9.82129 9.2321 9.78027 9.30957 9.69824C9.3916 9.61621 9.43262 9.51595 9.43262 9.39746C9.43262 9.27897 9.3916 9.18099 9.30957 9.10352C9.2321 9.02148 9.13411 8.98047 9.01562 8.98047ZM9.01562 11.3662H3.82715C3.7041 11.3662 3.60156 11.4072 3.51953 11.4893C3.4375 11.5713 3.39648 11.6738 3.39648 11.7969C3.39648 11.9108 3.4375 12.0088 3.51953 12.0908C3.60156 12.1683 3.7041 12.207 3.82715 12.207H9.01562C9.13411 12.207 9.2321 12.1683 9.30957 12.0908C9.3916 12.0088 9.43262 11.9108 9.43262 11.7969C9.43262 11.6738 9.3916 11.5713 9.30957 11.4893C9.2321 11.4072 9.13411 11.3662 9.01562 11.3662ZM2.87012 15.3926H10.1299C10.8363 15.3926 11.3649 15.2126 11.7158 14.8525C12.0713 14.4971 12.249 13.9639 12.249 13.2529V7.0459C12.249 6.74967 12.2331 6.5013 12.2012 6.30078C12.1693 6.10026 12.1055 5.91797 12.0098 5.75391C11.9186 5.58529 11.7819 5.40755 11.5996 5.2207L7.83301 1.38574C7.65983 1.20801 7.49121 1.07357 7.32715 0.982422C7.16309 0.886719 6.98307 0.822917 6.78711 0.791016C6.5957 0.754557 6.3724 0.736328 6.11719 0.736328H2.87012C2.16374 0.736328 1.63281 0.916341 1.27734 1.27637C0.926432 1.63639 0.750977 2.17188 0.750977 2.88281V13.2529C0.750977 13.9684 0.926432 14.5039 1.27734 14.8594C1.63281 15.2148 2.16374 15.3926 2.87012 15.3926ZM2.91797 14.292C2.56706 14.292 2.30046 14.2008 2.11816 14.0186C1.94043 13.8363 1.85156 13.5742 1.85156 13.2324V2.90332C1.85156 2.56608 1.94043 2.30404 2.11816 2.11719C2.30046 1.93034 2.56934 1.83691 2.9248 1.83691H5.9668V5.80859C5.9668 6.23698 6.07389 6.55827 6.28809 6.77246C6.50228 6.98665 6.82357 7.09375 7.25195 7.09375H11.1484V13.2324C11.1484 13.5742 11.0573 13.8363 10.875 14.0186C10.6973 14.2008 10.4307 14.292 10.0752 14.292H2.91797ZM7.375 6.06152C7.23828 6.06152 7.1403 6.0319 7.08105 5.97266C7.02637 5.91341 6.99902 5.81543 6.99902 5.67871V2.04883L10.9365 6.06152H7.375Z" fill="#6366F1"/>
</svg>
