<svg width="15" height="15" viewBox="0 0 15 15" fill="none" xmlns="http://www.w3.org/2000/svg">
<path d="M7.5 14.0371C8.45247 14.0371 9.34798 13.8548 10.1865 13.4902C11.0296 13.1257 11.7725 12.6221 12.415 11.9795C13.0576 11.3369 13.5612 10.5964 13.9258 9.75781C14.2904 8.91471 14.4727 8.01693 14.4727 7.06445C14.4727 6.11198 14.2904 5.21647 13.9258 4.37793C13.5612 3.53483 13.0576 2.79199 12.415 2.14941C11.7725 1.50684 11.0296 1.00326 10.1865 0.638672C9.34342 0.274089 8.44564 0.0917969 7.49316 0.0917969C6.54069 0.0917969 5.6429 0.274089 4.7998 0.638672C3.96126 1.00326 3.2207 1.50684 2.57812 2.14941C1.9401 2.79199 1.4388 3.53483 1.07422 4.37793C0.709635 5.21647 0.527344 6.11198 0.527344 7.06445C0.527344 8.01693 0.709635 8.91471 1.07422 9.75781C1.4388 10.5964 1.94238 11.3369 2.58496 11.9795C3.22754 12.6221 3.9681 13.1257 4.80664 13.4902C5.64974 13.8548 6.54753 14.0371 7.5 14.0371ZM7.5 12.875C6.69336 12.875 5.93913 12.7246 5.2373 12.4238C4.53548 12.123 3.91797 11.7083 3.38477 11.1797C2.85612 10.6465 2.44141 10.029 2.14062 9.32715C1.8444 8.62533 1.69629 7.87109 1.69629 7.06445C1.69629 6.25781 1.8444 5.50358 2.14062 4.80176C2.44141 4.09993 2.85612 3.48242 3.38477 2.94922C3.91341 2.41602 4.52865 2.0013 5.23047 1.70508C5.93229 1.4043 6.68652 1.25391 7.49316 1.25391C8.2998 1.25391 9.05404 1.4043 9.75586 1.70508C10.4577 2.0013 11.0752 2.41602 11.6084 2.94922C12.1416 3.48242 12.5586 4.09993 12.8594 4.80176C13.1602 5.50358 13.3105 6.25781 13.3105 7.06445C13.3105 7.87109 13.1602 8.62533 12.8594 9.32715C12.5632 10.029 12.1484 10.6465 11.6152 11.1797C11.0866 11.7083 10.4691 12.123 9.7627 12.4238C9.06087 12.7246 8.30664 12.875 7.5 12.875ZM7.36328 8.47949C7.5319 8.47949 7.66406 8.43164 7.75977 8.33594C7.86003 8.24023 7.91016 8.1263 7.91016 7.99414C7.91016 7.98047 7.91016 7.9668 7.91016 7.95312C7.91016 7.9349 7.91016 7.92122 7.91016 7.91211C7.91016 7.7207 7.96712 7.55664 8.08105 7.41992C8.19499 7.27865 8.37272 7.12826 8.61426 6.96875C8.94238 6.75 9.21354 6.52214 9.42773 6.28516C9.64193 6.04818 9.74902 5.72461 9.74902 5.31445C9.74902 4.9362 9.64648 4.61719 9.44141 4.35742C9.24089 4.09766 8.97656 3.90169 8.64844 3.76953C8.32031 3.63281 7.96257 3.56445 7.5752 3.56445C6.9873 3.56445 6.50651 3.68522 6.13281 3.92676C5.76367 4.16374 5.53125 4.43945 5.43555 4.75391C5.41732 4.80859 5.40365 4.86328 5.39453 4.91797C5.38542 4.97266 5.38086 5.02962 5.38086 5.08887C5.38086 5.24382 5.43099 5.3623 5.53125 5.44434C5.63151 5.52181 5.73861 5.56055 5.85254 5.56055C5.96647 5.56055 6.06217 5.53548 6.13965 5.48535C6.22168 5.43522 6.29232 5.36914 6.35156 5.28711L6.47461 5.12305C6.55664 4.99089 6.65007 4.87923 6.75488 4.78809C6.8597 4.69238 6.97591 4.61947 7.10352 4.56934C7.23568 4.51921 7.37695 4.49414 7.52734 4.49414C7.8418 4.49414 8.09245 4.57617 8.2793 4.74023C8.46615 4.89974 8.55957 5.10938 8.55957 5.36914C8.55957 5.60156 8.48665 5.79297 8.34082 5.94336C8.19499 6.08919 7.97168 6.26693 7.6709 6.47656C7.4248 6.64518 7.21973 6.83203 7.05566 7.03711C6.89616 7.24219 6.81641 7.51335 6.81641 7.85059C6.81641 7.86426 6.81641 7.88021 6.81641 7.89844C6.81641 7.91211 6.81641 7.92578 6.81641 7.93945C6.81641 8.29948 6.9987 8.47949 7.36328 8.47949ZM7.34277 10.5166C7.54329 10.5166 7.71647 10.4482 7.8623 10.3115C8.00814 10.1748 8.08105 10.0062 8.08105 9.80566C8.08105 9.60514 8.00814 9.43652 7.8623 9.2998C7.71647 9.16309 7.54329 9.09473 7.34277 9.09473C7.14225 9.09473 6.96908 9.16536 6.82324 9.30664C6.68197 9.44336 6.61133 9.6097 6.61133 9.80566C6.61133 10.0016 6.68424 10.1702 6.83008 10.3115C6.97591 10.4482 7.14681 10.5166 7.34277 10.5166Z" fill="#6366F1"/>
</svg>
