<svg width="290" height="108" viewBox="0 0 290 108" fill="none" xmlns="http://www.w3.org/2000/svg">
<path d="M29.44 0.698854C26.2933 2.36529 23.8932 4.83806 22.3998 7.90214C21.3331 10.0793 20.9865 12.2295 21.1465 15.3205C21.3065 18.1964 21.9732 20.4004 23.2799 22.6044C24.2932 24.2977 24.5332 24.3246 26.6399 22.9269C29.84 20.8304 32.1334 17.3632 32.9334 13.5734C33.4401 11.1275 33.4401 7.04205 32.9067 4.83806C32.4801 3.01036 31.2534 2.86102e-05 30.9334 2.86102e-05C30.8267 2.86102e-05 30.16 0.322563 29.44 0.698854Z" fill="#6366F1"/>
<path d="M6.18775 16.7181C3.81437 21.6367 3.68103 26.1791 5.78774 30.6408C7.01444 33.248 10.2412 36.554 12.7746 37.8441C13.7079 38.3279 14.6413 38.7042 14.8279 38.7042C15.2813 38.7042 16.3213 36.6615 16.908 34.6994C17.388 33.033 17.468 29.0282 17.0413 27.1467C16.5346 24.889 14.4813 21.0992 12.6412 19.1102C10.9879 17.3094 8.02779 15.0516 7.33444 15.0516C7.14777 15.0516 6.6411 15.8042 6.18775 16.7181Z" fill="#6366F1"/>
<path d="M35.8384 22.4164C29.3849 25.6417 25.5981 31.2323 25.5981 37.5218C25.5981 39.0807 26.1848 42.3329 26.5048 42.6823C26.5582 42.7092 27.4115 42.5748 28.3982 42.3329C32.5583 41.3653 36.9851 38.0593 38.8518 34.5383C39.7585 32.7913 40.5318 29.5659 40.5318 27.4694C40.5318 26.1255 40.2118 24.1366 39.7318 22.2551C39.3585 20.9112 38.8518 20.9112 35.8384 22.4164Z" fill="#6366F1"/>
<path d="M21.359 27.335C21.2257 27.6037 20.799 28.8401 20.4257 30.1034C18.1323 37.3873 17.8123 47.7622 19.599 56.5513C20.799 62.5988 22.5057 67.4369 25.5991 73.78C29.4926 81.709 33.6793 87.7835 40.6928 95.6856C44.8796 100.416 53.0397 108.211 53.5464 107.996C53.8931 107.888 55.9998 105.389 55.9998 105.12C55.9998 104.985 54.8798 103.883 53.5464 102.647C41.0395 91.2776 32.5326 80.1232 27.4658 68.4313C24.5591 61.7387 22.9857 55.6643 22.3724 48.6223C21.8657 42.736 22.7724 35.2639 24.5325 30.6678C24.9591 29.5658 25.2791 28.6251 25.2525 28.5982C25.0925 28.4638 21.8657 26.878 21.7591 26.878C21.6791 26.878 21.519 27.0931 21.359 27.335Z" fill="#6366F1"/>
<path d="M0.29334 36.2855C0.133336 37.0381 0 38.7851 0 40.129C0 44.6714 1.20003 47.7086 4.13343 50.6652C6.21347 52.7348 8.85353 54.2668 11.6003 54.9657C13.2803 55.3957 15.2003 55.5032 15.2003 55.1538C15.2003 55.0463 15.3337 54.1862 15.4937 53.2186C15.8937 50.6652 15.4137 47.7355 14.107 44.9133C12.0003 40.344 6.66681 36.2048 1.41336 35.076C0.58668 34.9147 0.58668 34.9147 0.29334 36.2855Z" fill="#6366F1"/>
<path d="M35.3884 42.5478C33.015 43.8917 31.0416 45.585 29.5749 47.5203C26.8282 51.1756 25.6549 54.8042 25.9482 58.8359C26.0815 60.798 26.9082 63.7814 27.4682 64.3458C28.2149 65.0984 33.5217 62.2225 35.5484 59.9647C37.0418 58.2714 38.2951 56.2018 38.9618 54.2666C40.0018 51.1757 39.6552 46.4451 38.1351 42.8704C37.8418 42.1984 37.4684 41.6609 37.2818 41.6609C37.0951 41.6609 36.2418 42.064 35.3884 42.5478Z" fill="#6366F1"/>
<path d="M1.94565 58.0297C2.47899 66.4962 7.99912 72.1675 16.2926 72.7588C17.546 72.8394 19.0127 72.8394 19.5727 72.7319C20.5061 72.5438 20.5327 72.5169 20.5327 71.4149C20.5061 68.0014 19.0394 64.4266 16.506 61.712C13.1459 58.0835 9.33248 56.3095 3.75902 55.7719L1.78564 55.5838L1.94565 58.0297Z" fill="#6366F1"/>
<path d="M42.7202 57.8142C41.9468 58.2442 40.5601 59.3731 39.6268 60.287C34.2133 65.6357 32.5333 72.9734 35.3333 78.9403C35.84 80.0154 36.3733 80.9023 36.56 80.9023C36.72 80.9023 37.7067 80.4454 38.7734 79.9079C42.4535 77.9458 45.7869 73.7528 46.6669 69.9361C47.4669 66.5226 46.8536 62.1147 45.1735 58.8624C44.1602 56.8735 44.2669 56.9272 42.7202 57.8142Z" fill="#6366F1"/>
<path d="M48.3986 73.8336C43.9452 79.5586 42.8252 86.9231 45.4919 92.6212C46.3719 94.4758 48.6653 97.298 49.3053 97.298C49.9187 97.298 52.7454 94.3146 53.7321 92.6212C56.5588 87.7563 56.6922 82.1926 54.1321 77.5158C53.1454 75.715 50.3454 72.3015 49.8387 72.3015C49.7053 72.3015 49.0653 73.0003 48.3986 73.8336Z" fill="#6366F1"/>
<path d="M8.66504 75.5271C8.07836 75.6615 7.25167 75.8765 6.825 76.0378C6.15832 76.3065 6.07831 76.4409 6.23832 77.2204C6.31832 77.6773 6.905 79.1018 7.51835 80.3382C8.77171 82.8379 11.0651 85.445 13.1451 86.6546C17.0652 88.9661 23.012 89.2617 27.4121 87.3534L28.7455 86.7621L28.4788 85.7945C27.9455 83.8324 26.5321 81.5746 24.7721 79.8276C21.652 76.7366 17.6519 75.2314 12.5585 75.2852C11.0118 75.3121 9.25172 75.4196 8.66504 75.5271Z" fill="#6366F1"/>
<path d="M23.4919 92.0569C20.9318 92.5407 18.3984 93.5083 18.3984 93.9921C18.3984 94.7178 19.9985 97.54 21.3318 99.1527C22.8785 101.034 25.0653 102.593 27.332 103.48C29.5454 104.34 34.0788 104.528 36.5322 103.883C38.7189 103.319 41.5723 101.948 41.7856 101.41C42.079 100.685 40.4789 98.0507 38.6656 96.223C36.7722 94.3147 34.4788 92.9977 31.8921 92.3257C29.5454 91.7344 25.8119 91.6 23.4919 92.0569Z" fill="#6366F1"/>
<path d="M81.375 62.5V44.2812H81.2812L75.5312 48.1875V44L81.3594 39.9531H86.0469V62.5H81.375ZM93 62.7656C92.2917 62.7656 91.6927 62.5208 91.2031 62.0312C90.7135 61.5417 90.4688 60.9427 90.4688 60.2344C90.4688 59.526 90.7135 58.9271 91.2031 58.4375C91.6927 57.9479 92.2917 57.7031 93 57.7031C93.7083 57.7031 94.3073 57.9479 94.7969 58.4375C95.2865 58.9271 95.5312 59.526 95.5312 60.2344C95.5312 60.9427 95.2865 61.5417 94.7969 62.0312C94.3073 62.5208 93.7083 62.7656 93 62.7656ZM98.4531 62.5V59.2656L106.422 51.8125C107.401 50.9062 108.141 50.151 108.641 49.5469C109.141 48.9427 109.479 48.401 109.656 47.9219C109.844 47.4427 109.938 46.9427 109.938 46.4219V46.3906C109.938 45.776 109.792 45.2344 109.5 44.7656C109.208 44.2865 108.802 43.9115 108.281 43.6406C107.771 43.3698 107.182 43.2344 106.516 43.2344C105.745 43.2344 105.068 43.3906 104.484 43.7031C103.901 44.0052 103.443 44.4271 103.109 44.9688C102.776 45.5 102.599 46.1042 102.578 46.7812L102.562 46.9219H98.1875V46.7969C98.1875 45.3802 98.5469 44.1302 99.2656 43.0469C99.9844 41.9531 100.969 41.099 102.219 40.4844C103.479 39.8698 104.901 39.5625 106.484 39.5625C108.078 39.5625 109.479 39.8438 110.688 40.4062C111.896 40.9583 112.839 41.7292 113.516 42.7188C114.193 43.7083 114.531 44.8438 114.531 46.125V46.1562C114.531 47.0625 114.365 47.9062 114.031 48.6875C113.708 49.4583 113.172 50.2812 112.422 51.1562C111.672 52.0208 110.646 53.0521 109.344 54.25L102.812 60.2031L104.625 57.0312V60.2031L102.828 58.75H114.844V62.5H98.4531ZM117.656 62.5V45.75H122.219V48.5625H122.312C122.656 47.6042 123.24 46.8385 124.062 46.2656C124.896 45.6927 125.875 45.4062 127 45.4062C127.781 45.4062 128.484 45.5417 129.109 45.8125C129.734 46.0833 130.26 46.474 130.688 46.9844C131.125 47.4948 131.432 48.1198 131.609 48.8594H131.703C131.953 48.151 132.328 47.5417 132.828 47.0312C133.339 46.5104 133.938 46.1094 134.625 45.8281C135.323 45.5469 136.083 45.4062 136.906 45.4062C138 45.4062 138.958 45.6406 139.781 46.1094C140.604 46.5781 141.245 47.2344 141.703 48.0781C142.161 48.9219 142.391 49.9115 142.391 51.0469V62.5H137.828V52.1875C137.828 51.5417 137.719 50.9948 137.5 50.5469C137.292 50.099 136.984 49.7604 136.578 49.5312C136.182 49.3021 135.688 49.1875 135.094 49.1875C134.521 49.1875 134.016 49.3177 133.578 49.5781C133.151 49.8385 132.818 50.2031 132.578 50.6719C132.339 51.1406 132.219 51.6875 132.219 52.3125V62.5H127.828V52.0469C127.828 51.4427 127.719 50.9271 127.5 50.5C127.281 50.0729 126.969 49.75 126.562 49.5312C126.167 49.3021 125.688 49.1875 125.125 49.1875C124.552 49.1875 124.047 49.3229 123.609 49.5938C123.172 49.8646 122.828 50.2396 122.578 50.7188C122.339 51.1979 122.219 51.7552 122.219 52.3906V62.5H117.656ZM145.672 55.3281V51.3438H162.641V55.3281H145.672ZM152.156 61.3281V45.3281H156.141V61.3281H152.156ZM173.562 62.5V49.1875H171.281V45.75H173.562V44.4062C173.562 43.3125 173.745 42.4115 174.109 41.7031C174.484 40.9948 175.073 40.4688 175.875 40.125C176.688 39.7812 177.755 39.6094 179.078 39.6094C179.495 39.6094 179.917 39.6302 180.344 39.6719C180.771 39.7031 181.115 39.7448 181.375 39.7969V42.8125C181.219 42.7812 181.036 42.7604 180.828 42.75C180.62 42.7396 180.411 42.7344 180.203 42.7344C179.453 42.7344 178.901 42.8906 178.547 43.2031C178.193 43.5156 178.016 43.974 178.016 44.5781V45.75H181.344V49.1875H178.125V62.5H173.562ZM187.891 62.7656C186.776 62.7656 185.797 62.5521 184.953 62.125C184.109 61.6875 183.448 61.0885 182.969 60.3281C182.5 59.5573 182.266 58.6823 182.266 57.7031V57.6719C182.266 56.651 182.521 55.7812 183.031 55.0625C183.542 54.3333 184.281 53.7604 185.25 53.3438C186.219 52.9271 187.396 52.6719 188.781 52.5781L195.312 52.1719V55.0156L189.469 55.3906C188.594 55.4427 187.927 55.651 187.469 56.0156C187.01 56.3698 186.781 56.8438 186.781 57.4375V57.4688C186.781 58.0833 187.016 58.5677 187.484 58.9219C187.953 59.2656 188.583 59.4375 189.375 59.4375C190.052 59.4375 190.656 59.3073 191.188 59.0469C191.729 58.776 192.151 58.4115 192.453 57.9531C192.766 57.4844 192.922 56.9583 192.922 56.375V51.2969C192.922 50.5573 192.688 49.974 192.219 49.5469C191.75 49.1094 191.068 48.8906 190.172 48.8906C189.318 48.8906 188.641 49.0677 188.141 49.4219C187.641 49.776 187.333 50.224 187.219 50.7656L187.188 50.9062H183.016L183.031 50.7188C183.115 49.6875 183.453 48.7708 184.047 47.9688C184.651 47.1667 185.484 46.5417 186.547 46.0938C187.62 45.6354 188.891 45.4062 190.359 45.4062C191.807 45.4062 193.062 45.6406 194.125 46.1094C195.188 46.5677 196.01 47.2188 196.594 48.0625C197.188 48.9062 197.484 49.8906 197.484 51.0156V62.5H192.922V60H192.828C192.516 60.5729 192.109 61.0677 191.609 61.4844C191.12 61.8906 190.562 62.2083 189.938 62.4375C189.312 62.6562 188.63 62.7656 187.891 62.7656ZM199.297 62.5L204.547 54.1562L199.328 45.75H204.469L207.484 51.4062H207.578L210.547 45.75H215.516L210.281 54.0312L215.469 62.5H210.516L207.328 56.6875H207.234L204.094 62.5H199.297Z" fill="white"/>
<path d="M128.194 27.832C127.068 27.832 126.091 27.666 125.264 27.334C124.437 26.9954 123.786 26.5202 123.311 25.9082C122.842 25.2897 122.579 24.5605 122.52 23.7207L122.51 23.5645H125.342L125.352 23.6621C125.398 24.0137 125.547 24.3229 125.801 24.5898C126.055 24.8568 126.394 25.0651 126.817 25.2148C127.24 25.3646 127.722 25.4395 128.262 25.4395C128.796 25.4395 129.262 25.3613 129.659 25.2051C130.056 25.0488 130.365 24.834 130.587 24.5605C130.808 24.2806 130.919 23.9616 130.919 23.6035V23.5938C130.919 23.1315 130.73 22.7637 130.352 22.4902C129.981 22.2103 129.359 21.9792 128.487 21.7969L126.993 21.4941C125.547 21.2012 124.486 20.7161 123.809 20.0391C123.139 19.3555 122.803 18.4798 122.803 17.4121V17.4023C122.81 16.5365 123.041 15.778 123.497 15.127C123.959 14.4759 124.594 13.9714 125.401 13.6133C126.208 13.2552 127.133 13.0762 128.174 13.0762C129.268 13.0762 130.209 13.252 130.997 13.6035C131.784 13.9551 132.396 14.4401 132.833 15.0586C133.275 15.6706 133.526 16.377 133.585 17.1777L133.594 17.3047H130.821L130.801 17.1875C130.749 16.8424 130.609 16.543 130.381 16.2891C130.154 16.0352 129.851 15.8366 129.473 15.6934C129.102 15.5436 128.669 15.4688 128.174 15.4688C127.686 15.4688 127.26 15.5404 126.895 15.6836C126.537 15.8268 126.257 16.0286 126.055 16.2891C125.853 16.543 125.753 16.8457 125.753 17.1973V17.207C125.753 17.6562 125.938 18.0241 126.309 18.3105C126.68 18.597 127.279 18.8249 128.106 18.9941L129.59 19.2969C130.587 19.4987 131.397 19.7721 132.022 20.1172C132.654 20.4622 133.119 20.8952 133.419 21.416C133.718 21.9368 133.868 22.5651 133.868 23.3008V23.3105C133.868 24.235 133.64 25.0358 133.184 25.7129C132.728 26.39 132.074 26.9141 131.221 27.2852C130.375 27.6497 129.366 27.832 128.194 27.832ZM141.289 27.7246C140.202 27.7246 139.268 27.5 138.487 27.0508C137.705 26.6016 137.103 25.9635 136.68 25.1367C136.263 24.3034 136.055 23.3171 136.055 22.1777V22.168C136.055 21.0352 136.263 20.0521 136.68 19.2188C137.103 18.3789 137.696 17.7311 138.457 17.2754C139.225 16.8197 140.13 16.5918 141.172 16.5918C142.214 16.5918 143.112 16.8132 143.867 17.2559C144.623 17.6986 145.205 18.3236 145.615 19.1309C146.026 19.9316 146.231 20.8724 146.231 21.9531V22.832H137.471V21.0449H144.873L143.526 22.7344V21.6016C143.526 20.9701 143.428 20.4395 143.233 20.0098C143.037 19.5801 142.767 19.2578 142.422 19.043C142.077 18.8281 141.677 18.7207 141.221 18.7207C140.765 18.7207 140.362 18.8314 140.01 19.0527C139.658 19.2741 139.382 19.5996 139.18 20.0293C138.978 20.459 138.877 20.9831 138.877 21.6016V22.7441C138.877 23.3431 138.975 23.8542 139.17 24.2773C139.372 24.7005 139.658 25.026 140.029 25.2539C140.401 25.4818 140.84 25.5957 141.348 25.5957C141.758 25.5957 142.106 25.5339 142.393 25.4102C142.686 25.2865 142.923 25.14 143.106 24.9707C143.288 24.7949 143.412 24.6322 143.477 24.4824L143.496 24.4238H146.143L146.123 24.5312C146.039 24.8763 145.886 25.2376 145.664 25.6152C145.443 25.9863 145.137 26.3314 144.746 26.6504C144.362 26.9694 143.884 27.2298 143.311 27.4316C142.738 27.627 142.064 27.7246 141.289 27.7246ZM148.75 27.5V16.8164H151.601V18.4863H151.748C152.002 17.9004 152.389 17.4382 152.91 17.0996C153.437 16.7611 154.088 16.5918 154.863 16.5918C156.048 16.5918 156.953 16.9401 157.578 17.6367C158.209 18.3333 158.525 19.3197 158.525 20.5957V27.5H155.674V21.2305C155.674 20.4883 155.511 19.9251 155.185 19.541C154.866 19.1504 154.375 18.9551 153.711 18.9551C153.275 18.9551 152.897 19.0527 152.578 19.248C152.265 19.4434 152.025 19.7201 151.855 20.0781C151.686 20.4297 151.601 20.8464 151.601 21.3281V27.5H148.75ZM165.849 27.5781C164.573 27.5781 163.649 27.347 163.076 26.8848C162.509 26.4225 162.226 25.6608 162.226 24.5996V18.9648H160.624V16.8164H162.226V14.248H165.107V16.8164H167.255V18.9648H165.107V24.0234C165.107 24.5052 165.218 24.8535 165.439 25.0684C165.66 25.2832 166.005 25.3906 166.474 25.3906C166.643 25.3906 166.783 25.3874 166.894 25.3809C167.011 25.3743 167.132 25.3646 167.255 25.3516V27.4609C167.086 27.4935 166.878 27.5195 166.63 27.5391C166.389 27.5651 166.129 27.5781 165.849 27.5781Z" fill="#6366F1"/>
<path d="M91 78.5L93.3574 85.7553H100.986L94.8143 90.2394L97.1717 97.4947L91 93.0106L84.8283 97.4947L87.1857 90.2394L81.0139 85.7553H88.6426L91 78.5Z" fill="#6366F1"/>
<path d="M118 78.5L120.357 85.7553H127.986L121.814 90.2394L124.172 97.4947L118 93.0106L111.828 97.4947L114.186 90.2394L108.014 85.7553H115.643L118 78.5Z" fill="#6366F1"/>
<path d="M145 78.5L147.357 85.7553H154.986L148.814 90.2394L151.172 97.4947L145 93.0106L138.828 97.4947L141.186 90.2394L135.014 85.7553H142.643L145 78.5Z" fill="#6366F1"/>
<path d="M172 78.5L174.357 85.7553H181.986L175.814 90.2394L178.172 97.4947L172 93.0106L165.828 97.4947L168.186 90.2394L162.014 85.7553H169.643L172 78.5Z" fill="#6366F1"/>
<path d="M199 78.5L201.357 85.7553H208.986L202.814 90.2394L205.172 97.4947L199 93.0106L192.828 97.4947L195.186 90.2394L189.014 85.7553H196.643L199 78.5Z" fill="#6366F1"/>
<path d="M260.56 0.698854C263.707 2.36529 266.107 4.83806 267.6 7.90214C268.667 10.0793 269.014 12.2295 268.854 15.3205C268.694 18.1964 268.027 20.4004 266.72 22.6044C265.707 24.2977 265.467 24.3246 263.36 22.9269C260.16 20.8304 257.867 17.3632 257.067 13.5734C256.56 11.1275 256.56 7.04205 257.093 4.83806C257.52 3.01036 258.747 2.86102e-05 259.067 2.86102e-05C259.173 2.86102e-05 259.84 0.322563 260.56 0.698854Z" fill="#6366F1"/>
<path d="M283.812 16.7181C286.186 21.6367 286.319 26.1791 284.212 30.6408C282.986 33.248 279.759 36.554 277.225 37.8441C276.292 38.3279 275.359 38.7042 275.172 38.7042C274.719 38.7042 273.679 36.6615 273.092 34.6994C272.612 33.033 272.532 29.0282 272.959 27.1467C273.465 24.889 275.519 21.0992 277.359 19.1102C279.012 17.3094 281.972 15.0516 282.666 15.0516C282.852 15.0516 283.359 15.8042 283.812 16.7181Z" fill="#6366F1"/>
<path d="M254.162 22.4164C260.615 25.6417 264.402 31.2323 264.402 37.5218C264.402 39.0807 263.815 42.3329 263.495 42.6823C263.442 42.7092 262.588 42.5748 261.602 42.3329C257.442 41.3653 253.015 38.0593 251.148 34.5383C250.242 32.7913 249.468 29.5659 249.468 27.4694C249.468 26.1255 249.788 24.1366 250.268 22.2551C250.642 20.9112 251.148 20.9112 254.162 22.4164Z" fill="#6366F1"/>
<path d="M268.641 27.335C268.774 27.6037 269.201 28.8401 269.574 30.1034C271.868 37.3873 272.188 47.7622 270.401 56.5513C269.201 62.5988 267.494 67.4369 264.401 73.78C260.507 81.709 256.321 87.7835 249.307 95.6856C245.12 100.416 236.96 108.211 236.454 107.996C236.107 107.888 234 105.389 234 105.12C234 104.985 235.12 103.883 236.454 102.647C248.961 91.2776 257.467 80.1232 262.534 68.4313C265.441 61.7387 267.014 55.6643 267.628 48.6223C268.134 42.736 267.228 35.2639 265.468 30.6678C265.041 29.5658 264.721 28.6251 264.748 28.5982C264.908 28.4638 268.134 26.878 268.241 26.878C268.321 26.878 268.481 27.0931 268.641 27.335Z" fill="#6366F1"/>
<path d="M289.707 36.2855C289.867 37.0381 290 38.7851 290 40.129C290 44.6714 288.8 47.7086 285.867 50.6652C283.787 52.7348 281.146 54.2668 278.4 54.9657C276.72 55.3957 274.8 55.5032 274.8 55.1538C274.8 55.0463 274.666 54.1862 274.506 53.2186C274.106 50.6652 274.586 47.7355 275.893 44.9133C278 40.344 283.333 36.2048 288.587 35.076C289.413 34.9147 289.413 34.9147 289.707 36.2855Z" fill="#6366F1"/>
<path d="M254.612 42.5478C256.985 43.8917 258.958 45.585 260.425 47.5203C263.172 51.1756 264.345 54.8042 264.052 58.8359C263.918 60.798 263.092 63.7814 262.532 64.3458C261.785 65.0984 256.478 62.2225 254.452 59.9647C252.958 58.2714 251.705 56.2018 251.038 54.2666C249.998 51.1757 250.345 46.4451 251.865 42.8704C252.158 42.1984 252.532 41.6609 252.718 41.6609C252.905 41.6609 253.758 42.064 254.612 42.5478Z" fill="#6366F1"/>
<path d="M288.054 58.0297C287.521 66.4962 282.001 72.1675 273.707 72.7588C272.454 72.8394 270.987 72.8394 270.427 72.7319C269.494 72.5438 269.467 72.5169 269.467 71.4149C269.494 68.0014 270.961 64.4266 273.494 61.712C276.854 58.0835 280.668 56.3095 286.241 55.7719L288.214 55.5838L288.054 58.0297Z" fill="#6366F1"/>
<path d="M247.28 57.8142C248.053 58.2442 249.44 59.3731 250.373 60.287C255.787 65.6357 257.467 72.9734 254.667 78.9403C254.16 80.0154 253.627 80.9023 253.44 80.9023C253.28 80.9023 252.293 80.4454 251.227 79.9079C247.547 77.9458 244.213 73.7528 243.333 69.9361C242.533 66.5226 243.146 62.1147 244.826 58.8624C245.84 56.8735 245.733 56.9272 247.28 57.8142Z" fill="#6366F1"/>
<path d="M241.601 73.8336C246.055 79.5586 247.175 86.9231 244.508 92.6212C243.628 94.4758 241.335 97.298 240.695 97.298C240.081 97.298 237.255 94.3146 236.268 92.6212C233.441 87.7563 233.308 82.1926 235.868 77.5158C236.855 75.715 239.655 72.3015 240.161 72.3015C240.295 72.3015 240.935 73.0003 241.601 73.8336Z" fill="#6366F1"/>
<path d="M281.335 75.5271C281.922 75.6615 282.748 75.8765 283.175 76.0378C283.842 76.3065 283.922 76.4409 283.762 77.2204C283.682 77.6773 283.095 79.1018 282.482 80.3382C281.228 82.8379 278.935 85.445 276.855 86.6546C272.935 88.9661 266.988 89.2617 262.588 87.3534L261.255 86.7621L261.521 85.7945C262.055 83.8324 263.468 81.5746 265.228 79.8276C268.348 76.7366 272.348 75.2314 277.442 75.2852C278.988 75.3121 280.748 75.4196 281.335 75.5271Z" fill="#6366F1"/>
<path d="M266.508 92.0569C269.068 92.5407 271.602 93.5083 271.602 93.9921C271.602 94.7178 270.002 97.54 268.668 99.1527C267.121 101.034 264.935 102.593 262.668 103.48C260.455 104.34 255.921 104.528 253.468 103.883C251.281 103.319 248.428 101.948 248.214 101.41C247.921 100.685 249.521 98.0507 251.334 96.223C253.228 94.3147 255.521 92.9977 258.108 92.3257C260.455 91.7344 264.188 91.6 266.508 92.0569Z" fill="#6366F1"/>
</svg>
